{"CARDIOVASCULAR":[
{"name":"Accidente cerebro vascular","value":"False"},
{"name":"Angina de pecho o dolor toraxico","value":"False"},
{"name":"Aneurismias","value":"False"},
{"name":"Cirugía o trasplante cardíaco","value":"False"},
{"name":"Defecto o lesión cardíaca congénita","value":"False"},
{"name":"Enfermedad o ataque cardíaco","value":"False"},
{"name":"Fiebre reumática","value":"False"},
{"name":"Insuficiencia cardíaca","value":"False"},
{"name":"Marcapasos o desfibrilador cardíaco","value":"False"},
{"name":"Presión arterial alta/baja","value":"False"},
{"name":"Prolapso de la válvula mitral","value":"False"},
{"name":"Soplo cardíaco Tipo","value":""},
{"name":"Válvula cardíaca artificial Tipo :","value":""},
{"name":"Otros problemas","value":""}
],

"HEMATOLOGÍA":[
{"name":"Anemia Tipo:","value":""},
{"name":"Hemofilia","value":"False"},
{"name":"Leucimia Tipo","value":""},
{"name":"Recibío transfusiónes de sangre","value":"False"},
{"name":"Tendencia a sangrar mas de lo normal","value":"False"}
],

"NERVIOSO_Y_SENSORIAL":[
{"name":"Dolor de oídos, zumbido en los oídos","value":"False"},
{"name":"Dolor de ojos","value":"False"},
{"name":"Dolores de cabeza intensos","value":"False"},
{"name":"Epilepsia, crisis o convulsiones","value":"False"},
{"name":"Glaucoma","value":"False"},
{"name":"Mareos o episodio de vértigo","value":"False"},
{"name":"Nerviosismo","value":"False"},
{"name":"Pérdida de audiciön","value":"False"},
{"name":"Tratamiento psiquiátrico","value":"False"}
],

"DIGESTIVO":[
{"name":"Cirrosis","value":"False"},
{"name":"Colitis","value":"False"},
{"name":"Diarrea persistente","value":"False"},
{"name":"Enfermedad hepática","value":"False"},
{"name":"Gastritis","value":"False"},
{"name":"Hepatitis Tipo:","value":""},
{"name":"Ictericia","value":"False"},
{"name":"Úlcera gástrica/intestinal","value":"False"}

],

"MÉTODO_ANTICONCEPTIVO":[
{"name":"pastillas","value":"False"},
{"name":"diafragma","value":"False"},
{"name":"diú","value":"False"},
{"name":"profilácticos","value":"False"}
],

"RESPIRATORIO":[
{"name":"Alergias o urticaria","value":"False"},
{"name":"Asma","value":"False"},
{"name":"Dificultades para respirar","value":"False"},
{"name":"Enfisema","value":"False"},
{"name":"Fiebre del heno","value":"False"},
{"name":"Problemas sinusales o sinusitis","value":"False"},
{"name":"Tos crónica","value":"False"},
{"name":"Tuberculosis","value":"False"}
],

"MUCOCUTANEO_O_MUSCULOESQUELÉTICO":[
{"name":"Alergia al látex (goma)","value":"False"},
{"name":"Áreas hiper o hipopigmentadas en la boca","value":"False"},
{"name":"Artritis/Atritis reunatoidea","value":"False"},
{"name":"Dolores musculares","value":"False"},
{"name":"Exantema cutáneo (erupciones en la piel)","value":"False"},
{"name":"Lunares oscuros (cambios recientes en la apariencia)","value":"False"},
{"name":"Prótesis articular","value":"False"},
{"name":"Rigidez de las articulaciones","value":"False"},
{"name":"Sudores nocturnos","value":"False"},
{"name":"Úlceras bucales o chancro","value":"False"},
{"name":"Otras lesiones :","value":""}
],

"ENDOCRÍNO":[
{"name":"Diabetes Tipo :","value":""},
{"name":"Enfermedad tiroidea","value":"False"}
],

"URINARIO_O_TRANSMISIÓN_SEXUAL":[
{"name":"Enfermedad trasmitida sexualmente (sífilis, gonorrea, clamidia o herpes genital)","value":""},
{"name":"HIV positivo","value":"False"},
{"name":"Micción frecuete (orina)","value":"False"},
{"name":"Problemas renales / prostáticos","value":"False"}
],

"OTRAS_PATOLOGÍAS":[
{"name":"Adicción a drogas o alcohol (en recuperación o actual)","value":"False"},
{"name":"Anginas o irritaciónes frecuente de la garganta","value":"False"},
{"name":"Aumento de tamaño de ganglioslinfáticos","value":"False"},
{"name":"Bebedores de alohol","value":"False"},
{"name":"Tabaquismo","value":"False"},
{"name":"Tratamiento de quimioterapia","value":"False"},
{"name":"Tratamiento conn Rayos X o cobaltoterapia","value":"False"},
{"name":"Tumor o cáncer","value":"False"},
{"name":"Otras, Aclarar :","value":""}
],

"ANTECEDENTES":[
{"name":"Antecedentes médicos : ASA ","value":""}
],

"FIRMAS":[
{"name":"firmaPaciente","value":""},
{"name":"aclaracion","value":""},
{"name":"firmaAlumno","value":""},
{"name":"firmaDocente","value":""}
]

}